<?xml version="1.0" encoding="UTF-8" standalone="no"?>
<svg
   xmlns:dc="http://purl.org/dc/elements/1.1/"
   xmlns:cc="http://creativecommons.org/ns#"
   xmlns:rdf="http://www.w3.org/1999/02/22-rdf-syntax-ns#"
   xmlns:svg="http://www.w3.org/2000/svg"
   xmlns="http://www.w3.org/2000/svg"
   xmlns:sodipodi="http://sodipodi.sourceforge.net/DTD/sodipodi-0.dtd"
   xmlns:inkscape="http://www.inkscape.org/namespaces/inkscape"
   version="1.1"
   id="svg2"
   width="25"
   height="25"
   viewBox="0 0 25 25"
   sodipodi:docname="MenuButton.svg"
   inkscape:version="1.0.1 (3bc2e813f5, 2020-09-07)">
  <metadata
     id="metadata8">
    <rdf:RDF>
      <cc:Work
         rdf:about="">
        <dc:format>image/svg+xml</dc:format>
        <dc:type
           rdf:resource="http://purl.org/dc/dcmitype/StillImage" />
        <dc:title></dc:title>
      </cc:Work>
    </rdf:RDF>
  </metadata>
  <defs
     id="defs6" />
  <sodipodi:namedview
     pagecolor="#ffffff"
     bordercolor="#666666"
     borderopacity="1"
     objecttolerance="10"
     gridtolerance="10"
     guidetolerance="10"
     inkscape:pageopacity="0"
     inkscape:pageshadow="2"
     inkscape:window-width="1920"
     inkscape:window-height="1052"
     id="namedview4"
     showgrid="false"
     showguides="true"
     inkscape:guide-bbox="true"
     inkscape:zoom="26.21875"
     inkscape:cx="16"
     inkscape:cy="12.844637"
     inkscape:window-x="0"
     inkscape:window-y="0"
     inkscape:window-maximized="1"
     inkscape:current-layer="g10">
    <sodipodi:guide
       position="-9.2334613,12.449486"
       orientation="0,-1"
       id="guide1083" />
    <sodipodi:guide
       position="12.47199,18.706794"
       orientation="1,0"
       id="guide1096" />
  </sodipodi:namedview>
  <g
     inkscape:groupmode="layer"
     inkscape:label="Image"
     id="g10">
    <circle
       style="fill:#de8787;fill-opacity:1;stroke:none;stroke-width:0.912599;stroke-opacity:1"
       id="path955-3"
       cx="12.461555"
       cy="12.537795"
       r="12" />
    <circle
       style="fill:none;fill-opacity:1;stroke:#780000;stroke-width:0.915801;stroke-opacity:1"
       id="path955"
       cx="12.485272"
       cy="12.562373"
       r="12.0421" />
    <g
       id="g1094"
       transform="translate(0.11628194,-0.31011272)">
      <rect
         style="fill:#f9f9f9;fill-opacity:1;stroke:none;stroke-width:1.00157;stroke-opacity:1"
         id="rect1060"
         width="14.392492"
         height="1.9482876"
         x="5.2086611"
         y="5.9665966" />
      <rect
         style="fill:#f9f9f9;fill-opacity:1;stroke:none;stroke-width:1.00157;stroke-opacity:1"
         id="rect1060-7"
         width="14.392492"
         height="1.9482876"
         x="5.2086611"
         y="11.914885" />
      <rect
         style="fill:#f9f9f9;fill-opacity:1;stroke:none;stroke-width:1.00157;stroke-opacity:1"
         id="rect1060-5"
         width="14.392492"
         height="1.9482876"
         x="5.2086616"
         y="17.863173" />
    </g>
  </g>
</svg>
